%YAML 1.1
%TAG !u! tag:unity3d.com,2011:
--- !u!687078895 &4343727234628468602
SpriteAtlas:
  m_ObjectHideFlags: 0
  m_CorrespondingSourceObject: {fileID: 0}
  m_PrefabInstance: {fileID: 0}
  m_PrefabAsset: {fileID: 0}
  m_Name: BossTips
  serializedVersion: 2
  m_EditorData:
    serializedVersion: 2
    textureSettings:
      serializedVersion: 2
      anisoLevel: 1
      compressionQuality: 50
      maxTextureSize: 2048
      textureCompression: 0
      filterMode: 1
      generateMipMaps: 0
      readable: 0
      crunchedCompression: 0
      sRGB: 1
    platformSettings:
    - serializedVersion: 3
      m_BuildTarget: iPhone
      m_MaxTextureSize: 2048
      m_ResizeAlgorithm: 0
      m_TextureFormat: 33
      m_TextureCompression: 1
      m_CompressionQuality: 50
      m_CrunchedCompression: 0
      m_AllowsAlphaSplitting: 1
      m_Overridden: 1
      m_AndroidETC2FallbackOverride: 0
      m_ForceMaximumCompressionQuality_BC6H_BC7: 0
    - serializedVersion: 3
      m_BuildTarget: Android
      m_MaxTextureSize: 2048
      m_ResizeAlgorithm: 0
      m_TextureFormat: 47
      m_TextureCompression: 1
      m_CompressionQuality: 50
      m_CrunchedCompression: 0
      m_AllowsAlphaSplitting: 0
      m_Overridden: 1
      m_AndroidETC2FallbackOverride: 0
      m_ForceMaximumCompressionQuality_BC6H_BC7: 0
    - serializedVersion: 3
      m_BuildTarget: Standalone
      m_MaxTextureSize: 2048
      m_ResizeAlgorithm: 0
      m_TextureFormat: 12
      m_TextureCompression: 1
      m_CompressionQuality: 50
      m_CrunchedCompression: 0
      m_AllowsAlphaSplitting: 0
      m_Overridden: 1
      m_AndroidETC2FallbackOverride: 0
      m_ForceMaximumCompressionQuality_BC6H_BC7: 0
    packingSettings:
      serializedVersion: 2
      padding: 4
      blockOffset: 0
      allowAlphaSplitting: 0
      enableRotation: 1
      enableTightPacking: 0
    secondaryTextureSettings: {}
    variantMultiplier: 1
    packables:
    - {fileID: 2800000, guid: 5175fad1259aec14a80757f8b8e5bd8f, type: 3}
    - {fileID: 2800000, guid: 15248e77a7c76f84a8db485972e26844, type: 3}
    - {fileID: 2800000, guid: db0729845ef31714a83a7787cda85a8c, type: 3}
    - {fileID: 2800000, guid: de685b5d12e57ac4eba9233bd97a058f, type: 3}
    - {fileID: 2800000, guid: 6e64d8b6a1f3f174aaab3636e8c89c85, type: 3}
    - {fileID: 2800000, guid: 5edf2f243a8b1ba4cbaced0e4d32dfe7, type: 3}
    - {fileID: 2800000, guid: c5b2a8e7d5f073049a6433f7cbf4751c, type: 3}
    - {fileID: 2800000, guid: 31e856eb36c8a0544afdfb5a650b5756, type: 3}
    bindAsDefault: 1
    isAtlasV2: 0
    cachedData: {fileID: 0}
  m_MasterAtlas: {fileID: 0}
  m_PackedSprites:
  - {fileID: 21300000, guid: 5175fad1259aec14a80757f8b8e5bd8f, type: 3}
  - {fileID: 21300000, guid: 5edf2f243a8b1ba4cbaced0e4d32dfe7, type: 3}
  - {fileID: 21300000, guid: db0729845ef31714a83a7787cda85a8c, type: 3}
  - {fileID: 21300000, guid: 6e64d8b6a1f3f174aaab3636e8c89c85, type: 3}
  - {fileID: 21300000, guid: 15248e77a7c76f84a8db485972e26844, type: 3}
  - {fileID: 21300000, guid: c5b2a8e7d5f073049a6433f7cbf4751c, type: 3}
  - {fileID: 21300000, guid: 31e856eb36c8a0544afdfb5a650b5756, type: 3}
  - {fileID: 21300000, guid: de685b5d12e57ac4eba9233bd97a058f, type: 3}
  m_PackedSpriteNamesToIndex:
  - img_BossSkill_Progress
  - img_langren_dianzan_02
  - img_check_bg
  - img_langren_dianzan_01
  - img_BossSkill_ProgressBg
  - img_pet_name
  - mag_pet_bg
  - img_check_level
  m_RenderDataMap: {}
  m_Tag: BossTips
  m_IsVariant: 0
  m_IsPlaceholder: 0
