%YAML 1.1
%TAG !u! tag:unity3d.com,2011:
--- !u!21 &2100000
Material:
  serializedVersion: 6
  m_ObjectHideFlags: 0
  m_CorrespondingSourceObject: {fileID: 0}
  m_PrefabInstance: {fileID: 0}
  m_PrefabAsset: {fileID: 0}
  m_Name: Mat_LeiHaoChangLong_Idle01
  m_Shader: {fileID: 4800000, guid: aa1ae61f6d436c54cb6cc756eb1d8813, type: 3}
  m_ShaderKeywords: 
  m_LightmapFlags: 4
  m_EnableInstancingVariants: 0
  m_DoubleSidedGI: 0
  m_CustomRenderQueue: -1
  stringTagMap: {}
  disabledShaderPasses: []
  m_SavedProperties:
    serializedVersion: 3
    m_TexEnvs:
    - _AnimMap:
        m_Texture: {fileID: 2800000, guid: 3d13059d5ad53ed4885bdabf8e49f3b1, type: 2}
        m_Scale: {x: 1, y: 1}
        m_Offset: {x: 0, y: 0}
    - _MainTex:
        m_Texture: {fileID: 2800000, guid: 3cfa4e1537da91348b070cb8382efe4f, type: 3}
        m_Scale: {x: 1, y: 1}
        m_Offset: {x: 0, y: 0}
    m_Floats:
    - _AnimLen: 2.6666667
    - _AnimProgress: 0
    m_Colors:
    - _Brightness: {r: 0, g: 0, b: 0, a: 1}
  m_BuildTextureStacks: []
