%YAML 1.1
%TAG !u! tag:unity3d.com,2011:
--- !u!21 &2100000
Material:
  serializedVersion: 6
  m_ObjectHideFlags: 0
  m_CorrespondingSourceObject: {fileID: 0}
  m_PrefabInstance: {fileID: 0}
  m_PrefabAsset: {fileID: 0}
  m_Name: Mat_YaoGuaiTouMu_Idle
  m_Shader: {fileID: 4800000, guid: aa1ae61f6d436c54cb6cc756eb1d8813, type: 3}
  m_ShaderKeywords: 
  m_LightmapFlags: 4
  m_EnableInstancingVariants: 0
  m_DoubleSidedGI: 0
  m_CustomRenderQueue: -1
  stringTagMap: {}
  disabledShaderPasses: []
  m_SavedProperties:
    serializedVersion: 3
    m_TexEnvs:
    - _AnimMap:
        m_Texture: {fileID: 2800000, guid: 667603fcf2375ce49b1efb4f8c7ca4a1, type: 2}
        m_Scale: {x: 1, y: 1}
        m_Offset: {x: 0, y: 0}
    - _MainTex:
        m_Texture: {fileID: 2800000, guid: a5e6dd03cf67d164fbac90e6d6d15b6e, type: 3}
        m_Scale: {x: 1, y: 1}
        m_Offset: {x: 0, y: 0}
    m_Floats:
    - _AnimLen: 1.3333334
    m_Colors:
    - _Brightness: {r: 0, g: 0, b: 0, a: 1}
  m_BuildTextureStacks: []
