%YAML 1.1
%TAG !u! tag:unity3d.com,2011:
--- !u!21 &2100000
Material:
  serializedVersion: 8
  m_ObjectHideFlags: 0
  m_CorrespondingSourceObject: {fileID: 0}
  m_PrefabInstance: {fileID: 0}
  m_PrefabAsset: {fileID: 0}
  m_Name: mx_liudong01_wby16
  m_Shader: {fileID: 4800000, guid: 44fa629a614eb1b48bde653825426aaa, type: 3}
  m_ValidKeywords:
  - _KEYWORD0_ON
  m_InvalidKeywords: []
  m_LightmapFlags: 0
  m_EnableInstancingVariants: 0
  m_DoubleSidedGI: 0
  m_CustomRenderQueue: -1
  stringTagMap: {}
  disabledShaderPasses: []
  m_SavedProperties:
    serializedVersion: 3
    m_TexEnvs:
    - _000000:
        m_Texture: {fileID: 0}
        m_Scale: {x: 1, y: 1}
        m_Offset: {x: 0, y: 0}
    - _BumpMap:
        m_Texture: {fileID: 0}
        m_Scale: {x: 1, y: 1}
        m_Offset: {x: 0, y: 0}
    - _DetailAlbedoMap:
        m_Texture: {fileID: 0}
        m_Scale: {x: 1, y: 1}
        m_Offset: {x: 0, y: 0}
    - _DetailMask:
        m_Texture: {fileID: 0}
        m_Scale: {x: 1, y: 1}
        m_Offset: {x: 0, y: 0}
    - _DetailNormalMap:
        m_Texture: {fileID: 0}
        m_Scale: {x: 1, y: 1}
        m_Offset: {x: 0, y: 0}
    - _EmissionMap:
        m_Texture: {fileID: 0}
        m_Scale: {x: 1, y: 1}
        m_Offset: {x: 0, y: 0}
    - _FlowMap:
        m_Texture: {fileID: 2800000, guid: 9b3658a1da727c84cb2fe28a85bf5c13, type: 3}
        m_Scale: {x: 1, y: 1}
        m_Offset: {x: 0, y: 0}
    - _Jhin_Skin05_EmpQ_StarsSKINS_Jhin_Skin05:
        m_Texture: {fileID: 0}
        m_Scale: {x: 1, y: 1}
        m_Offset: {x: 0, y: 0}
    - _MainTex:
        m_Texture: {fileID: 2800000, guid: 6580132ce0c717f409f0c4972087b092, type: 3}
        m_Scale: {x: 1, y: 1}
        m_Offset: {x: 0, y: 0}
    - _Mask_02:
        m_Texture: {fileID: 0}
        m_Scale: {x: 1, y: 1}
        m_Offset: {x: 0, y: 0}
    - _Mask_Tex:
        m_Texture: {fileID: 2800000, guid: 5996bacb45baac04a94279848966a711, type: 3}
        m_Scale: {x: 1, y: 1}
        m_Offset: {x: 0, y: 0}
    - _Mask_Tex_LD:
        m_Texture: {fileID: 2800000, guid: aa8e9157ff934cc428c02a57c782e061, type: 3}
        m_Scale: {x: 1, y: 1}
        m_Offset: {x: 0, y: 0}
    - _MetallicGlossMap:
        m_Texture: {fileID: 0}
        m_Scale: {x: 1, y: 1}
        m_Offset: {x: 0, y: 0}
    - _OcclusionMap:
        m_Texture: {fileID: 0}
        m_Scale: {x: 1, y: 1}
        m_Offset: {x: 0, y: 0}
    - _ParallaxMap:
        m_Texture: {fileID: 0}
        m_Scale: {x: 1, y: 1}
        m_Offset: {x: 0, y: 0}
    - _TEX_01:
        m_Texture: {fileID: 2800000, guid: 42d28836127aa87488570283ba8619c5, type: 3}
        m_Scale: {x: 1, y: 1}
        m_Offset: {x: 0, y: 0}
    - _TEX_03:
        m_Texture: {fileID: 0}
        m_Scale: {x: 1, y: 1}
        m_Offset: {x: 0, y: 0}
    - _TextureSample0:
        m_Texture: {fileID: 2800000, guid: a939ca9d9b515cd41b2f91e6be7ed84d, type: 3}
        m_Scale: {x: 1, y: 1}
        m_Offset: {x: 0, y: -0.05}
    - _TextureSample1:
        m_Texture: {fileID: 0}
        m_Scale: {x: 1, y: 1}
        m_Offset: {x: 0, y: 0}
    - _Wenli_Tex_color:
        m_Texture: {fileID: 0}
        m_Scale: {x: 1, y: 1}
        m_Offset: {x: 0, y: 0}
    - _gaoliang_TEX:
        m_Texture: {fileID: 0}
        m_Scale: {x: 1, y: 1}
        m_Offset: {x: 0, y: 0}
    - _main_TEX:
        m_Texture: {fileID: 2800000, guid: 4a18b3166fd7781449c5e1053177f536, type: 3}
        m_Scale: {x: 1, y: 1}
        m_Offset: {x: 0.14, y: -4.17}
    - _main_Tex:
        m_Texture: {fileID: 2800000, guid: 60f3c9f8b8d7df54c89fdd397d107176, type: 3}
        m_Scale: {x: 1, y: 4}
        m_Offset: {x: 0, y: 0}
    - _main_tex:
        m_Texture: {fileID: 2800000, guid: 15e85872905f06e41914e6c5e3361355, type: 3}
        m_Scale: {x: 1, y: 1}
        m_Offset: {x: 0, y: 0}
    - _mask:
        m_Texture: {fileID: 0}
        m_Scale: {x: 1, y: 1}
        m_Offset: {x: 0, y: 0}
    - _mask_02:
        m_Texture: {fileID: 2800000, guid: 58ea8d31bc8291d42b14d456cc79dba3, type: 3}
        m_Scale: {x: 1, y: 1}
        m_Offset: {x: 0, y: 0}
    - _mask_TEX:
        m_Texture: {fileID: 2800000, guid: 58ea8d31bc8291d42b14d456cc79dba3, type: 3}
        m_Scale: {x: 1, y: 1}
        m_Offset: {x: 0, y: 0}
    - _mask_tex:
        m_Texture: {fileID: 0}
        m_Scale: {x: 1, y: 1}
        m_Offset: {x: 0, y: 0}
    - _niuqu0:
        m_Texture: {fileID: 0}
        m_Scale: {x: 1, y: 1}
        m_Offset: {x: 0, y: 0}
    - _niuqu1:
        m_Texture: {fileID: 0}
        m_Scale: {x: 1, y: 1}
        m_Offset: {x: 0, y: 0}
    - _niuqu_TEX:
        m_Texture: {fileID: 0}
        m_Scale: {x: 1, y: 1}
        m_Offset: {x: 0, y: 0}
    - _niuqu_TEX_02:
        m_Texture: {fileID: 0}
        m_Scale: {x: 1, y: 1}
        m_Offset: {x: 0, y: 0}
    - _niuqu_tex:
        m_Texture: {fileID: 0}
        m_Scale: {x: 1, y: 1}
        m_Offset: {x: 0, y: 0}
    - _niuqu_tex_02:
        m_Texture: {fileID: 0}
        m_Scale: {x: 1, y: 1}
        m_Offset: {x: 0, y: 0}
    - _rongjie_TEX:
        m_Texture: {fileID: 0}
        m_Scale: {x: 1, y: 0.2}
        m_Offset: {x: 0, y: 0.63}
    - _ruan_rongjie_TEX:
        m_Texture: {fileID: 0}
        m_Scale: {x: 1, y: 1}
        m_Offset: {x: 0, y: 0}
    - _tex4coord2:
        m_Texture: {fileID: 0}
        m_Scale: {x: 1, y: 1}
        m_Offset: {x: 0, y: 0}
    - _tex_01:
        m_Texture: {fileID: 2800000, guid: e359e4e6f63fdb94ba2826ab44792231, type: 3}
        m_Scale: {x: 1, y: 1}
        m_Offset: {x: 0, y: 0}
    - _tex_01_fu:
        m_Texture: {fileID: 0}
        m_Scale: {x: 1, y: 1}
        m_Offset: {x: 0, y: 0}
    - _tex_02:
        m_Texture: {fileID: 0}
        m_Scale: {x: 1, y: 1}
        m_Offset: {x: 0, y: 0}
    - _tex_02_fu:
        m_Texture: {fileID: 0}
        m_Scale: {x: 1, y: 1}
        m_Offset: {x: 0, y: 0}
    - _texcoord:
        m_Texture: {fileID: 0}
        m_Scale: {x: 1, y: 1}
        m_Offset: {x: 0, y: 0}
    - _wen_li:
        m_Texture: {fileID: 0}
        m_Scale: {x: 1, y: 1}
        m_Offset: {x: 0, y: 0}
    - _zhezhao:
        m_Texture: {fileID: 0}
        m_Scale: {x: 1, y: 1}
        m_Offset: {x: 0, y: 0}
    - _zhezhao_01:
        m_Texture: {fileID: 0}
        m_Scale: {x: 1, y: 1}
        m_Offset: {x: 0, y: 0}
    - _zhezhao_02:
        m_Texture: {fileID: 2800000, guid: 09ed71dad77479643899917de697bec5, type: 3}
        m_Scale: {x: 1, y: 1}
        m_Offset: {x: 0, y: 0}
    - _zhezhao_13:
        m_Texture: {fileID: 0}
        m_Scale: {x: 1, y: 1}
        m_Offset: {x: 0, y: 0}
    m_Ints: []
    m_Floats:
    - _01: 0
    - _02: 2.13
    - _BumpScale: 1
    - _Cutoff: 0.5
    - _DetailNormalMapScale: 1
    - _DstBlend: 0
    - _Fresnel_Bias: 0
    - _Fresnel_Power: 1
    - _Fresnel_Scale: 1
    - _GlossMapScale: 1
    - _Glossiness: 0.5
    - _GlossyReflections: 1
    - _Keyword0: 1
    - _Metallic: 0
    - _Mode: 0
    - _OcclusionStrength: 1
    - _Parallax: 0.02
    - _SmoothnessTextureChannel: 0
    - _SpecularHighlights: 1
    - _SrcBlend: 1
    - _UVSec: 0
    - _Uspeed: 1
    - _Vspeed: 0
    - _ZWrite: 1
    - __dirty: 0
    - _gaoliang_zhi: 0
    - _niose_zhi: 0.23
    - _niudong_qiangdu: 0
    - _niuqu_qiangdu: -0.7
    - _niuqu_zhi: 0
    - _power: 1
    - _qiangdu: 1.15
    - _rongjie_zhi: 0
    - _ruanbian: -5.94
    - _ruanbian_kaiguan: 0
    m_Colors:
    - _01_Tiling: {r: 0, g: 0, b: 0, a: 0}
    - _01_speed: {r: 0, g: 0, b: 0, a: 0}
    - _01_tiling_fu: {r: 0, g: 0, b: 0, a: 0}
    - _01speed_fu: {r: 0, g: 0, b: 0, a: 0}
    - _02_Tiling: {r: 0, g: 0, b: 0, a: 0}
    - _02_speed: {r: 0, g: 0, b: 0, a: 0}
    - _02_speed_fu: {r: 0, g: 0, b: 0, a: 0}
    - _02_tiling_fu: {r: 0, g: 0, b: 0, a: 0}
    - _Color: {r: 1, g: 1, b: 1, a: 1}
    - _Color0: {r: 2.270603, g: 2.270603, b: 2.270603, a: 1}
    - _Color_wei: {r: 0, g: 0.1465373, b: 1, a: 0}
    - _EmissionColor: {r: 0, g: 0, b: 0, a: 1}
    - _Main_Color: {r: 1, g: 1, b: 1, a: 1}
    - _Main_Tex_Offset: {r: -0.77, g: 0, b: 0, a: 0}
    - _Main_Tex_Tiling: {r: 1, g: 1, b: 0, a: 0}
    - _Mask_02TEX_Tiling: {r: 0, g: 0, b: 0, a: 0}
    - _Mask_02TEX_speed: {r: 0, g: 0, b: 0, a: 0}
    - _Mask_Tex_Tiling: {r: 0, g: 0, b: 0, a: 0}
    - _Offset: {r: 0, g: 0, b: 0, a: 0}
    - _Tiling: {r: 1, g: 1, b: 0, a: 0}
    - _Vector0: {r: 1, g: 0, b: 0, a: 0}
    - _Wenli_Color: {r: 0, g: 0, b: 0, a: 0}
    - _color_01: {r: 0, g: 0, b: 0, a: 0}
    - _color_02: {r: 0, g: 0, b: 0, a: 0}
    - _color_tou: {r: 1, g: 0, b: 0, a: 0}
    - _lerp_color_01: {r: 0.0990566, g: 0.41682, b: 1, a: 1}
    - _lerp_color_02: {r: 1, g: 0.1084906, b: 0.9807181, a: 1}
    - _main_TEX_Tiling: {r: 0, g: 0, b: 0, a: 0}
    - _main_TEX_offset: {r: 0, g: 0, b: 0, a: 0}
    - _main_TEX_tiling: {r: -1.12, g: 0.38, b: 0, a: -0.16}
    - _main_Tex_speed: {r: 0, g: 0, b: 0, a: 0}
    - _main_Tex_tiling: {r: 0, g: 0, b: 0, a: 0}
    - _main_Tiling: {r: 0, g: 0, b: 0, a: 0}
    - _main_speed: {r: 0, g: 0, b: 0, a: 0}
    - _main_tiling: {r: 1, g: 1, b: 0, a: 0}
    - _map_Offset: {r: 0, g: 0, b: 0, a: 0}
    - _map_Tiling: {r: 0, g: 0, b: 0, a: 0}
    - _mask_TEX_speed: {r: 0, g: 0, b: 0, a: 0}
    - _mask_TEX_tiling: {r: 0, g: 0, b: 0, a: 0}
    - _niuqu01_speed: {r: 0.2, g: 0.2, b: 0, a: 0}
    - _niuqu02_speed: {r: -0.1, g: -0.1, b: 0, a: 0}
    - _speed: {r: 0.72, g: 0, b: -2.23, a: 0}
    - _wen_li_Tiling: {r: 0, g: 0, b: 0, a: 0}
    - _wen_li_speed: {r: 0, g: 0, b: 0, a: 0}
  m_BuildTextureStacks: []
